<?xml version="1.0" encoding="UTF-8"?>
<svg width="150px" height="51px" viewBox="0 0 150 51" version="1.1" xmlns="http://www.w3.org/2000/svg" xmlns:xlink="http://www.w3.org/1999/xlink">
    <!-- Generator: Sketch 50.2 (55047) - http://www.bohemiancoding.com/sketch -->
    <title>logo/vertical copy</title>
    <desc>Created with Sketch.</desc>
    <defs></defs>
    <g id="1.0.0-LP---Blog-" stroke="none" stroke-width="1" fill="none" fill-rule="evenodd">
        <g id="T1---Desktop-HD---scrolled" transform="translate(-255.000000, -829.000000)">
            <g id="logo/logo-vertical-white" transform="translate(255.000000, 829.000000)">
                <g id="logo/wordmark-white" transform="translate(56.477733, 13.357143)" fill="#FFFFFF">
                    <g id="wordmark">
                        <path d="M5.06782078,8.26484848 C6.87884675,8.26484848 8.00379481,9.46121212 8.00379481,11.3872727 C8.00379481,13.3133333 6.87884675,14.509697 5.06782078,14.509697 C3.2336,14.509697 2.04822338,13.2836364 2.04822338,11.3872727 C2.04822338,9.49030303 3.2336,8.26484848 5.06782078,8.26484848 M5.0666,6.53575758 C2.04822338,6.53575758 0.0754441558,8.4569697 0.0754441558,11.4284848 L0.0754441558,19.1127273 C0.0754441558,19.66 0.344015584,19.8836364 0.895807792,19.8836364 L1.20893766,19.8836364 C1.76805455,19.8836364 2.00671688,19.6678788 2.00671688,19.1127273 L2.00671688,14.9793939 C2.70927532,15.8072727 3.87084675,16.2387879 5.22408052,16.2387879 C8.05995065,16.2387879 9.9484961,14.2890909 9.9484961,11.3872727 C9.9484961,8.48545455 7.97693766,6.53575758 5.0666,6.53575758" id="Fill-1"></path>
                        <path d="M15.9566221,14.509697 C14.1199597,14.509697 12.9791416,13.3212121 12.9791416,11.4078788 C12.9791416,9.46909091 14.1199597,8.26484848 15.9566221,8.26484848 C17.7780247,8.26484848 18.9554662,9.49878788 18.9554662,11.4078788 C18.9554662,13.3212121 17.806713,14.509697 15.9566221,14.509697 M15.9566221,6.53575758 C13.0090506,6.53575758 11.0289468,8.49333333 11.0289468,11.4078788 C11.0289468,14.2975758 13.0090506,16.2387879 15.9566221,16.2387879 C18.9164013,16.2387879 20.9050506,14.2975758 20.9050506,11.4078788 C20.9050506,8.49333333 18.9164013,6.53575758 15.9566221,6.53575758" id="Fill-3"></path>
                        <path d="M25.2806896,14.3880606 L25.1586117,14.4086667 C25.0560662,14.4280606 24.9089623,14.4474545 24.7185208,14.4474545 C24.562261,14.4474545 24.3071182,14.4474545 24.3071182,13.6238182 L24.3071182,1.71533333 C24.3071182,1.16745455 24.164287,0.880181818 23.6124948,0.880181818 L23.2578584,0.880181818 C22.7207156,0.880181818 22.3752351,1.182 22.3752351,1.71533333 L22.3752351,13.7692727 C22.3752351,15.0195758 22.6688325,16.1771515 24.4151571,16.1771515 C24.7264558,16.1771515 25.0310403,16.1353333 25.3038844,16.0438182 C25.6859883,15.9486667 25.8874169,15.7456364 25.8874169,15.3432121 L25.8874169,14.9492727 C25.8874169,14.7729091 25.8471312,14.5765455 25.6908714,14.4553333 C25.5285078,14.3298788 25.3148714,14.3783636 25.2806896,14.3880606" id="Fill-5"></path>
                        <path d="M34.4386701,6.80787879 L34.0632805,6.80787879 C33.5261377,6.80787879 33.2862545,7.01333333 33.2862545,7.54666667 L33.2880857,12.2042424 C33.1861506,13.2539394 32.6660987,14.4969697 30.8874234,14.4969697 C29.4310338,14.4969697 28.6967351,13.6915152 28.6967351,12.050303 L28.6967351,7.51454545 C28.6967351,6.98060606 28.5093455,6.80787879 27.9722026,6.80787879 L27.596813,6.80787879 C27.0596701,6.80787879 26.7648519,6.98060606 26.7648519,7.51454545 L26.7648519,12.2157576 C26.7648519,14.809697 28.0906182,16.2387879 30.4479429,16.2387879 C31.7114494,16.2387879 32.6801377,15.829697 33.2563455,15.2751515 C33.1153455,17.109697 32.0782935,17.9678788 30.0096831,17.9678788 C28.995826,17.9678788 28.3652935,17.78 27.7579558,17.5721212 C27.6590727,17.5363636 27.3862286,17.4418182 27.1701506,17.5909091 C26.9516312,17.7430303 26.9406442,18.0260606 26.9406442,18.1187879 L26.9406442,18.5121212 C26.9406442,19.0036364 27.2488909,19.1612121 27.5070857,19.2375758 C28.0765792,19.4842424 29.1435403,19.6563636 30.0933065,19.6563636 C31.9958909,19.6563636 35.1937221,19.0042424 35.1937221,14.6387879 L35.1937221,7.51454545 C35.1937221,6.97333333 34.9684883,6.80787879 34.4386701,6.80787879" id="Fill-7"></path>
                        <path d="M46.7128727,6.53593939 C45.3980935,6.53593939 44.3866779,7.06139394 43.7952104,8.03048485 C43.1927558,7.04987879 42.2033143,6.53593939 40.8860935,6.53593939 C39.8057039,6.53593939 37.3006649,6.92624242 37.3006649,10.5383636 L37.3006649,15.2601818 C37.3006649,15.8080606 37.5161325,16.0480606 38.0679247,16.0480606 L38.422561,16.0480606 C38.9743532,16.0480606 39.2319377,15.8080606 39.2319377,15.2601818 L39.2319377,10.4759394 C39.2319377,8.55169697 40.3019506,8.2650303 40.9776519,8.2650303 C41.6612883,8.2650303 42.7441195,8.55169697 42.7441195,10.4759394 L42.7441195,15.2601818 C42.7441195,15.8080606 43.064574,16.0480606 43.6163662,16.0480606 L43.9710026,16.0480606 C44.5087558,16.0480606 44.6753922,15.7935152 44.6753922,15.2601818 L44.6753922,10.4759394 C44.6753922,8.48018182 45.9791844,8.2650303 46.5297558,8.2650303 C47.2054571,8.2650303 48.3627558,8.55169697 48.3627558,10.4759394 L48.3627558,15.2601818 C48.3627558,15.7935152 48.6282753,16.0480606 49.1654182,16.0480606 L49.5408078,16.0480606 C50.0779506,16.0480606 50.294639,15.7935152 50.294639,15.2601818 L50.294639,10.5383636 C50.294639,6.92624242 47.7932623,6.53593939 46.7128727,6.53593939" id="Fill-9"></path>
                        <path d="M59.7775909,11.3872121 C59.7775909,13.2841818 58.5928247,14.5096364 56.7586039,14.5096364 C54.9469675,14.5096364 53.8226299,13.3132727 53.8226299,11.3872121 C53.8226299,9.46115152 54.9469675,8.26478788 56.7586039,8.26478788 C58.5928247,8.26478788 59.7775909,9.49084848 59.7775909,11.3872121 M62.4114221,14.3708485 L62.3406169,14.395697 C62.3003312,14.415697 62.1996169,14.4472121 62.0989026,14.4472121 C61.8797727,14.4472121 61.7082532,14.4472121 61.7082532,13.5823636 L61.7082532,11.4290303 C61.7082532,8.45690909 59.7568377,6.53569697 56.7378506,6.53569697 C53.827513,6.53569697 51.8724351,8.48539394 51.8724351,11.3872121 C51.8724351,14.2890303 53.777461,16.2387273 56.6121104,16.2387273 C57.9751104,16.2387273 59.0878506,15.7914545 59.8734221,14.9369091 C60.0870584,15.7332727 60.6577727,16.135697 61.5770195,16.135697 C62.0726558,16.135697 62.2783571,16.1144848 62.6049156,15.9981212 C62.9381883,15.8993333 63.1127597,15.6599394 63.1127597,15.3429697 L63.1127597,14.8672121 C63.1127597,14.7744848 63.1298506,14.556303 62.9632143,14.4229697 C62.7929156,14.286 62.5988117,14.3320606 62.4114221,14.3708485" id="Fill-11"></path>
                        <path d="M67.8991909,14.3344848 C67.6184117,14.4138788 67.4505545,14.4472121 67.1996844,14.4472121 C66.5062818,14.4472121 65.922139,14.3138788 65.922139,12.6714545 L65.922139,8.37690909 L67.4389571,8.37690909 C67.9260481,8.37690909 68.0292039,8.16418182 68.0292039,7.67993939 L68.0292039,7.45206061 C68.0292039,6.95509091 67.9394766,6.80781818 67.4389571,6.80781818 L65.922139,6.80781818 L65.922139,5.15327273 C65.922139,4.47509091 65.5388143,4.36660606 65.1023857,4.36660606 L64.7892558,4.36660606 C64.2374636,4.36660606 63.9908662,4.60539394 63.9908662,5.15327273 L63.9908662,12.4229697 C63.9908662,14.9902424 64.9229312,16.135697 66.9897104,16.135697 C67.3003987,16.135697 67.7490351,16.1108485 68.0731519,15.995697 C68.1903468,15.9569091 68.5559701,15.8387273 68.5559701,15.3223636 L68.5559701,14.8878182 C68.5559701,14.6908485 68.4943208,14.5393333 68.3789571,14.4375152 C68.2684766,14.3411515 68.1207623,14.3011515 67.8991909,14.3344848" id="Fill-13"></path>
                        <path d="M72.2783091,14.3880606 L72.1556208,14.4086667 C72.0530753,14.4280606 71.9364909,14.4474545 71.7460494,14.4474545 C71.5897896,14.4474545 71.3651662,14.4474545 71.3651662,13.6238182 L71.3651662,7.51472727 C71.3651662,6.96624242 71.1612961,6.80806061 70.6095039,6.80806061 L70.2548675,6.80806061 C69.7177247,6.80806061 69.4338935,6.98078788 69.4338935,7.51472727 L69.4338935,13.7692727 C69.4338935,15.0195758 69.696361,16.1771515 71.4426857,16.1771515 C71.7545948,16.1771515 71.9859325,16.1353333 72.259387,16.0438182 C72.6414909,15.9486667 72.7702831,15.7456364 72.7702831,15.3432121 L72.7702831,14.9492727 C72.7702831,14.7729091 72.787374,14.5765455 72.6311143,14.4553333 C72.4675299,14.3298788 72.3118805,14.3789697 72.2783091,14.3880606" id="Fill-15"></path>
                        <path d="M70.4635597,5.59369697 C71.1191182,5.59369697 71.5952221,5.104 71.5952221,4.42824242 C71.5952221,3.76460606 71.1087416,3.264 70.4635597,3.264 C69.7835857,3.264 69.2903909,3.75369697 69.2903909,4.42824242 C69.2903909,5.11490909 69.7725987,5.59369697 70.4635597,5.59369697" id="Fill-17"></path>
                        <path d="M81.7467948,14.1852121 L81.6881974,14.1985455 C81.5374312,14.2318788 81.4061974,14.2609697 81.289613,14.2609697 C80.8818727,14.2609697 80.7518597,13.8912727 80.5321195,12.9827879 C80.3197039,12.1058182 80.0370935,10.9391515 78.9493792,10.3567273 L81.6766,7.63006061 C81.9244182,7.35975758 81.8804701,7.17066667 81.8328597,7.06278788 C81.784639,6.95490909 81.6503532,6.80763636 81.289613,6.80763636 L80.6639636,6.80763636 C80.2550026,6.80763636 80.0285481,6.88460606 79.7801195,7.13066667 L75.7552104,11.0476364 L75.7552104,1.30157576 C75.7552104,0.767636364 75.6105481,0.531272727 75.0734052,0.531272727 L74.7193792,0.531272727 C74.167587,0.531272727 73.8239377,0.753090909 73.8239377,1.30157576 L73.8239377,15.2597576 C73.8239377,15.8082424 74.167587,16.0482424 74.7193792,16.0482424 L75.0734052,16.0482424 C75.6105481,16.0482424 75.7552104,15.793697 75.7552104,15.2597576 L75.7552104,13.4561212 L77.4758987,11.7955152 C78.4036909,11.8949091 78.6539506,12.5912727 78.936561,13.6930909 C79.2039117,14.7349091 79.4956779,16.0318788 81.1205351,16.0318788 C81.8444571,16.0318788 82.2521974,15.7524848 82.2521974,15.3015758 L82.2521974,14.7215758 C82.2521974,14.5355152 82.2479247,14.3912727 82.135613,14.2918788 C82.0599247,14.2270303 81.9793532,14.1567273 81.7467948,14.1852121" id="Fill-19"></path>
                        <path d="M86.9679455,10.3953939 L86.7921532,10.356 C85.5378026,10.0723636 84.8828545,9.89175758 84.8828545,9.19236364 C84.8828545,8.48024242 85.3961922,8.20327273 86.713413,8.20327273 C87.5874909,8.20327273 88.3370494,8.29660606 88.9669714,8.48690909 C89.0902701,8.51236364 89.298413,8.56690909 89.4894649,8.41539394 C89.6554909,8.28206061 89.6268026,8.07418182 89.6268026,7.92872727 L89.6268026,7.45236364 C89.6268026,7.04569697 89.3899714,6.90387879 89.1079714,6.81781818 C88.5158935,6.64145455 87.6180104,6.536 86.6688545,6.536 C85.7642571,6.536 83.025439,6.536 83.025439,9.25418182 C83.025439,11.3990303 84.9756338,11.8081212 86.0200104,12.0281212 L86.1848156,12.0620606 C87.4428286,12.3275152 88.2088675,12.546303 88.2088675,13.3547879 C88.2088675,13.9020606 87.9781403,14.5305455 86.1707766,14.5305455 C85.2973091,14.5305455 84.5221143,14.4226667 83.705413,14.1838788 C83.5180234,14.1469091 83.304387,14.1190303 83.1353091,14.2566061 C82.975387,14.386303 82.9546338,14.585697 82.9546338,14.7632727 L82.9546338,15.2190303 C82.9546338,15.706303 83.2628805,15.8372121 83.5491532,15.8966061 C84.6020753,16.1802424 85.4004649,16.2384242 86.2757636,16.2384242 C88.8198675,16.2384242 90.0565169,15.2953939 90.0565169,13.3547879 C90.0565169,11.0923636 88.0471143,10.6390303 86.9679455,10.3953939" id="Fill-21"></path>
                        <polygon id="Fill-23" points="91.2072844 3.14648485 91.2072844 3.4949697 90.504726 3.4949697 90.504726 5.58709091 90.1537519 5.58709091 90.1537519 3.4949697 89.2754013 3.4949697 89.2754013 3.14648485"></polygon>
                        <path d="M91.5583805,3.14648485 L92.0296013,3.14648485 L92.7040818,5.1149697 L93.3736792,3.14648485 L93.8412377,3.14648485 L93.8412377,5.58709091 L93.4902636,5.58709091 L93.4902636,4.17193939 C93.4902636,4.12406061 93.5073545,4.04587879 93.5091857,3.93557576 C93.5110169,3.82527273 93.5201727,3.72890909 93.5201727,3.60284848 L92.8591208,5.58709091 L92.5447701,5.58709091 L91.9099649,3.58224242 L91.9099649,3.65315152 C91.9099649,3.71072727 91.9063026,3.79739394 91.9099649,3.91436364 C91.9130169,4.03072727 91.9099649,4.11678788 91.9099649,4.17193939 L91.9099649,5.58709091 L91.5583805,5.58709091 L91.5583805,3.14648485 Z" id="Fill-25"></path>
                    </g>
                </g>
                <g id="Page-1" fill="#FEFEFE">
                    <polygon id="Fill-28" points="8.38227747 10.2753569 8.38227747 15.1785714 19.8692139 3.42126422 33.5291099 3.42126422 30.1729562 0 18.423025 0.00578209265"></polygon>
                    <polygon id="Fill-30" points="12.342827 42.4988889 24.0899384 42.5 34.127844 32.6403407 34.127844 27.9285714 22.6529604 39.1960391 8.98101158 39.1960391"></polygon>
                    <polygon id="Fill-32" points="25.1468324 43.1071429 29.93013 43.1071429 38.3189827 34.7205665 38.3189827 20.4199184 34.8911141 17 34.880863 33.3663859"></polygon>
                    <polygon id="Fill-34" points="27.5417688 8.5 39.1446961 19.8613409 39.1446961 33.3928571 42.5101215 30.070074 42.5101215 18.4380915 32.3801741 8.5"></polygon>
                    <polygon id="Fill-36" points="16.7645549 7.72658783 32.907259 7.73756045 42.5101215 17.6071429 42.5101215 12.7566676 34.2521096 4.25 20.1390503 4.25"></polygon>
                    <polygon id="Fill-38" points="10.1334322 34.6071429 14.9683526 34.6071429 3.37400924 22.959193 3.37400924 9.10714286 0 12.5105076 0.00570222957 24.4251519"></polygon>
                    <polygon id="Fill-40" points="4.19113874 47.6225278 7.60349668 51 7.60349668 38.5153849 22.373698 38.5153849 25.7455665 35.131134 16.7237375 35.1316989 16.3593327 35.1356531 9.58972745 35.1356531 4.19113874 29.75"></polygon>
                    <polygon id="Fill-42" points="0 43.3748102 3.59240463 46.75 3.59240463 28.8559482 0 25.5"></polygon>
                    <polygon id="Fill-44" points="4.19113874 22.6798997 7.62200321 26.1071429 7.62997666 9.73893527 17.363289 0 12.5797846 0 4.19113874 8.37453786"></polygon>
                </g>
            </g>
        </g>
    </g>
</svg>