<?xml version="1.0" encoding="UTF-8"?>
<svg width="255px" height="92px" viewBox="0 0 255 92" version="1.1" xmlns="http://www.w3.org/2000/svg" xmlns:xlink="http://www.w3.org/1999/xlink">
    <!-- Generator: Sketch 50.2 (55047) - http://www.bohemiancoding.com/sketch -->
    <title>logo/vertical</title>
    <desc>Created with Sketch.</desc>
    <defs></defs>
    <g id="1.0.0-LP---Blog-" stroke="none" stroke-width="1" fill="none" fill-rule="evenodd">
        <g id="T1---Desktop-HD" transform="translate(-251.000000, -46.000000)">
            <g id="logo/logo-vertical" transform="translate(255.000000, 48.000000)">
                <g id="logo/wordmark-white" transform="translate(93.000000, 22.000000)" fill="#FFFFFF">
                    <g id="wordmark">
                        <path d="M8.3026,13.637 C11.2696,13.637 13.1126,15.611 13.1126,18.789 C13.1126,21.967 11.2696,23.941 8.3026,23.941 C5.2976,23.941 3.3556,21.918 3.3556,18.789 C3.3556,15.659 5.2976,13.637 8.3026,13.637 M8.3006,10.784 C3.3556,10.784 0.1236,13.954 0.1236,18.857 L0.1236,31.536 C0.1236,32.439 0.5636,32.808 1.4676,32.808 L1.9806,32.808 C2.8966,32.808 3.2876,32.452 3.2876,31.536 L3.2876,24.716 C4.4386,26.082 6.3416,26.794 8.5586,26.794 C13.2046,26.794 16.2986,23.577 16.2986,18.789 C16.2986,14.001 13.0686,10.784 8.3006,10.784" id="Fill-1"></path>
                        <path d="M26.1417,23.941 C23.1327,23.941 21.2637,21.98 21.2637,18.823 C21.2637,15.624 23.1327,13.637 26.1417,13.637 C29.1257,13.637 31.0547,15.673 31.0547,18.823 C31.0547,21.98 29.1727,23.941 26.1417,23.941 M26.1417,10.784 C21.3127,10.784 18.0687,14.014 18.0687,18.823 C18.0687,23.591 21.3127,26.794 26.1417,26.794 C30.9907,26.794 34.2487,23.591 34.2487,18.823 C34.2487,14.014 30.9907,10.784 26.1417,10.784" id="Fill-3"></path>
                        <path d="M41.4173,23.7403 L41.2173,23.7743 C41.0493,23.8063 40.8083,23.8383 40.4963,23.8383 C40.2403,23.8383 39.8223,23.8383 39.8223,22.4793 L39.8223,2.8303 C39.8223,1.9263 39.5883,1.4523 38.6843,1.4523 L38.1033,1.4523 C37.2233,1.4523 36.6573,1.9503 36.6573,2.8303 L36.6573,22.7193 C36.6573,24.7823 37.1383,26.6923 39.9993,26.6923 C40.5093,26.6923 41.0083,26.6233 41.4553,26.4723 C42.0813,26.3153 42.4113,25.9803 42.4113,25.3163 L42.4113,24.6663 C42.4113,24.3753 42.3453,24.0513 42.0893,23.8513 C41.8233,23.6443 41.4733,23.7243 41.4173,23.7403" id="Fill-5"></path>
                        <path d="M56.4208,11.233 L55.8058,11.233 C54.9258,11.233 54.5328,11.572 54.5328,12.452 L54.5358,20.137 C54.3688,21.869 53.5168,23.92 50.6028,23.92 C48.2168,23.92 47.0138,22.591 47.0138,19.883 L47.0138,12.399 C47.0138,11.518 46.7068,11.233 45.8268,11.233 L45.2118,11.233 C44.3318,11.233 43.8488,11.518 43.8488,12.399 L43.8488,20.156 C43.8488,24.436 46.0208,26.794 49.8828,26.794 C51.9528,26.794 53.5398,26.119 54.4838,25.204 C54.2528,28.231 52.5538,29.647 49.1648,29.647 C47.5038,29.647 46.4708,29.337 45.4758,28.994 C45.3138,28.935 44.8668,28.779 44.5128,29.025 C44.1548,29.276 44.1368,29.743 44.1368,29.896 L44.1368,30.545 C44.1368,31.356 44.6418,31.616 45.0648,31.742 C45.9978,32.149 47.7458,32.433 49.3018,32.433 C52.4188,32.433 57.6578,31.357 57.6578,24.154 L57.6578,12.399 C57.6578,11.506 57.2888,11.233 56.4208,11.233" id="Fill-7"></path>
                        <path d="M76.5296,10.7843 C74.3756,10.7843 72.7186,11.6513 71.7496,13.2503 C70.7626,11.6323 69.1416,10.7843 66.9836,10.7843 C65.2136,10.7843 61.1096,11.4283 61.1096,17.3883 L61.1096,25.1793 C61.1096,26.0833 61.4626,26.4793 62.3666,26.4793 L62.9476,26.4793 C63.8516,26.4793 64.2736,26.0833 64.2736,25.1793 L64.2736,17.2853 C64.2736,14.1103 66.0266,13.6373 67.1336,13.6373 C68.2536,13.6373 70.0276,14.1103 70.0276,17.2853 L70.0276,25.1793 C70.0276,26.0833 70.5526,26.4793 71.4566,26.4793 L72.0376,26.4793 C72.9186,26.4793 73.1916,26.0593 73.1916,25.1793 L73.1916,17.2853 C73.1916,13.9923 75.3276,13.6373 76.2296,13.6373 C77.3366,13.6373 79.2326,14.1103 79.2326,17.2853 L79.2326,25.1793 C79.2326,26.0593 79.6676,26.4793 80.5476,26.4793 L81.1626,26.4793 C82.0426,26.4793 82.3976,26.0593 82.3976,25.1793 L82.3976,17.3883 C82.3976,11.4283 78.2996,10.7843 76.5296,10.7843" id="Fill-9"></path>
                        <path d="M97.9335,18.7889 C97.9335,21.9189 95.9925,23.9409 92.9875,23.9409 C90.0195,23.9409 88.1775,21.9669 88.1775,18.7889 C88.1775,15.6109 90.0195,13.6369 92.9875,13.6369 C95.9925,13.6369 97.9335,15.6599 97.9335,18.7889 M102.2485,23.7119 L102.1325,23.7529 C102.0665,23.7859 101.9015,23.8379 101.7365,23.8379 C101.3775,23.8379 101.0965,23.8379 101.0965,22.4109 L101.0965,18.8579 C101.0965,13.9539 97.8995,10.7839 92.9535,10.7839 C88.1855,10.7839 84.9825,14.0009 84.9825,18.7889 C84.9825,23.5769 88.1035,26.7939 92.7475,26.7939 C94.9805,26.7939 96.8035,26.0559 98.0905,24.6459 C98.4405,25.9599 99.3755,26.6239 100.8815,26.6239 C101.6935,26.6239 102.0305,26.5889 102.5655,26.3969 C103.1115,26.2339 103.3975,25.8389 103.3975,25.3159 L103.3975,24.5309 C103.3975,24.3779 103.4255,24.0179 103.1525,23.7979 C102.8735,23.5719 102.5555,23.6479 102.2485,23.7119" id="Fill-11"></path>
                        <path d="M111.2391,23.6519 C110.7791,23.7829 110.5041,23.8379 110.0931,23.8379 C108.9571,23.8379 108.0001,23.6179 108.0001,20.9079 L108.0001,13.8219 L110.4851,13.8219 C111.2831,13.8219 111.4521,13.4709 111.4521,12.6719 L111.4521,12.2959 C111.4521,11.4759 111.3051,11.2329 110.4851,11.2329 L108.0001,11.2329 L108.0001,8.5029 C108.0001,7.3839 107.3721,7.2049 106.6571,7.2049 L106.1441,7.2049 C105.2401,7.2049 104.8361,7.5989 104.8361,8.5029 L104.8361,20.4979 C104.8361,24.7339 106.3631,26.6239 109.7491,26.6239 C110.2581,26.6239 110.9931,26.5829 111.5241,26.3929 C111.7161,26.3289 112.3151,26.1339 112.3151,25.2819 L112.3151,24.5649 C112.3151,24.2399 112.2141,23.9899 112.0251,23.8219 C111.8441,23.6629 111.6021,23.5969 111.2391,23.6519" id="Fill-13"></path>
                        <path d="M118.4134,23.7403 L118.2124,23.7743 C118.0444,23.8063 117.8534,23.8383 117.5414,23.8383 C117.2854,23.8383 116.9174,23.8383 116.9174,22.4793 L116.9174,12.3993 C116.9174,11.4943 116.5834,11.2333 115.6794,11.2333 L115.0984,11.2333 C114.2184,11.2333 113.7534,11.5183 113.7534,12.3993 L113.7534,22.7193 C113.7534,24.7823 114.1834,26.6923 117.0444,26.6923 C117.5554,26.6923 117.9344,26.6233 118.3824,26.4723 C119.0084,26.3153 119.2194,25.9803 119.2194,25.3163 L119.2194,24.6663 C119.2194,24.3753 119.2474,24.0513 118.9914,23.8513 C118.7234,23.6443 118.4684,23.7253 118.4134,23.7403" id="Fill-15"></path>
                        <path d="M115.4403,9.2296 C116.5143,9.2296 117.2943,8.4216 117.2943,7.3066 C117.2943,6.2116 116.4973,5.3856 115.4403,5.3856 C114.3263,5.3856 113.5183,6.1936 113.5183,7.3066 C113.5183,8.4396 114.3083,9.2296 115.4403,9.2296" id="Fill-17"></path>
                        <path d="M133.9256,23.4056 L133.8296,23.4276 C133.5826,23.4826 133.3676,23.5306 133.1766,23.5306 C132.5086,23.5306 132.2956,22.9206 131.9356,21.4216 C131.5876,19.9746 131.1246,18.0496 129.3426,17.0886 L133.8106,12.5896 C134.2166,12.1436 134.1446,11.8316 134.0666,11.6536 C133.9876,11.4756 133.7676,11.2326 133.1766,11.2326 L132.1516,11.2326 C131.4816,11.2326 131.1106,11.3596 130.7036,11.7656 L124.1096,18.2286 L124.1096,2.1476 C124.1096,1.2666 123.8726,0.8766 122.9926,0.8766 L122.4126,0.8766 C121.5086,0.8766 120.9456,1.2426 120.9456,2.1476 L120.9456,25.1786 C120.9456,26.0836 121.5086,26.4796 122.4126,26.4796 L122.9926,26.4796 C123.8726,26.4796 124.1096,26.0596 124.1096,25.1786 L124.1096,22.2026 L126.9286,19.4626 C128.4486,19.6266 128.8586,20.7756 129.3216,22.5936 C129.7596,24.3126 130.2376,26.4526 132.8996,26.4526 C134.0856,26.4526 134.7536,25.9916 134.7536,25.2476 L134.7536,24.2906 C134.7536,23.9836 134.7466,23.7456 134.5626,23.5816 C134.4386,23.4746 134.3066,23.3586 133.9256,23.4056" id="Fill-19"></path>
                        <path d="M142.4794,17.1524 L142.1914,17.0874 C140.1364,16.6194 139.0634,16.3214 139.0634,15.1674 C139.0634,13.9924 139.9044,13.5354 142.0624,13.5354 C143.4944,13.5354 144.7224,13.6894 145.7544,14.0034 C145.9564,14.0454 146.2974,14.1354 146.6104,13.8854 C146.8824,13.6654 146.8354,13.3224 146.8354,13.0824 L146.8354,12.2964 C146.8354,11.6254 146.4474,11.3914 145.9854,11.2494 C145.0154,10.9584 143.5444,10.7844 141.9894,10.7844 C140.5074,10.7844 136.0204,10.7844 136.0204,15.2694 C136.0204,18.8084 139.2154,19.4834 140.9264,19.8464 L141.1964,19.9024 C143.2574,20.3404 144.5124,20.7014 144.5124,22.0354 C144.5124,22.9384 144.1344,23.9754 141.1734,23.9754 C139.7424,23.9754 138.4724,23.7974 137.1344,23.4034 C136.8274,23.3424 136.4774,23.2964 136.2004,23.5234 C135.9384,23.7374 135.9044,24.0664 135.9044,24.3594 L135.9044,25.1114 C135.9044,25.9154 136.4094,26.1314 136.8784,26.2294 C138.6034,26.6974 139.9114,26.7934 141.3454,26.7934 C145.5134,26.7934 147.5394,25.2374 147.5394,22.0354 C147.5394,18.3024 144.2474,17.5544 142.4794,17.1524" id="Fill-21"></path>
                        <polygon id="Fill-23" points="149.4247 5.1917 149.4247 5.7667 148.2737 5.7667 148.2737 9.2187 147.6987 9.2187 147.6987 5.7667 146.2597 5.7667 146.2597 5.1917"></polygon>
                        <path d="M149.9999,5.1917 L150.7719,5.1917 L151.8769,8.4397 L152.9739,5.1917 L153.7399,5.1917 L153.7399,9.2187 L153.1649,9.2187 L153.1649,6.8837 C153.1649,6.8047 153.1929,6.6757 153.1959,6.4937 C153.1989,6.3117 153.2139,6.1527 153.2139,5.9447 L152.1309,9.2187 L151.6159,9.2187 L150.5759,5.9107 L150.5759,6.0277 C150.5759,6.1227 150.5699,6.2657 150.5759,6.4587 C150.5809,6.6507 150.5759,6.7927 150.5759,6.8837 L150.5759,9.2187 L149.9999,9.2187 L149.9999,5.1917 Z" id="Fill-25"></path>
                    </g>
                </g>
                <g id="emblem/emblem-70x84">
                    <g id="emblem">
                        <polygon id="Fill-27" fill="#DBB946" points="13.6854 26.1292 33.0174 6.7752 56.2384 6.7752 49.4444 0.0002 30.1154 0.0102 13.6854 16.4472"></polygon>
                        <polygon id="Fill-29" fill="#005696" points="56.2377 43.7647 36.9367 63.0707 13.7167 63.0707 20.5097 69.8697 39.8237 69.8717 56.2377 53.4467"></polygon>
                        <polygon id="Fill-31" fill="#DBB946" points="56.2833 26.1295 56.2653 53.4695 39.8363 69.9045 49.4443 69.9045 63.1483 56.2085 63.1483 32.9755"></polygon>
                        <polygon id="Fill-33" fill="#4787BF" points="43.7948 13.6854 63.1488 32.9874 63.1488 56.2084 69.9038 49.4144 69.9038 30.1004 53.4768 13.6854"></polygon>
                        <polygon id="Fill-35" fill="#005696" points="26.16 13.6402 53.484 13.6582 69.904 30.0872 69.904 20.4792 56.238 6.7752 33.006 6.7752"></polygon>
                        <polygon id="Fill-37" fill="#005696" points="26.1283 56.2376 6.7743 36.9066 6.7743 13.6856 0.0003 20.4796 0.0093 39.8076 16.4463 56.2376"></polygon>
                        <polygon id="Fill-39" fill="#4787BF" points="26.1234 56.231 26.1284 56.238 16.4464 56.238 6.7744 46.632 6.7744 56.177 6.7744 77.191 13.6854 84 13.6854 63.071 36.9484 63.071 43.7944 56.231"></polygon>
                        <polygon id="Fill-41" fill="#DBB946" points="0.0191 39.8377 0.0191 70.3587 6.7741 77.1907 6.7741 46.6317"></polygon>
                        <polygon id="Fill-43" fill="#4787BF" points="13.6444 43.7618 13.6574 16.4388 30.0864 0.0188 20.4784 0.0188 6.7744 13.6858 6.7744 36.9068"></polygon>
                    </g>
                </g>
            </g>
        </g>
    </g>
</svg>